…
But this plot is misleading. It suggests that FH20 has
shorter-trajectory tokens and HD09 longer, but in reality, HD09’s mean
trajectory length is the shortest, FH20’s the longest:

``` r
vowel_data_means |>
  distinct(Speaker, Neighborhood, traj_length) |>
  arrange(traj_length)
```

    # A tibble: 29 × 3
       Speaker        Neighborhood          traj_length
       <chr>          <chr>                       <dbl>
     1 HD09           "Hill District"             1369.
     2 FH17           "Forest Hills"              1554.
     3 HD01           "Hill District"             1572.
     4 LV17           "Lawrenceville"             1587.
     5 LV11           "Lawrenceville"             1592.
     6 HD23           "Hill District"             1608.
     7 HD06           "Hill District"             1616.
     8 Interviewer HD "Interviewer"               1631.
     9 FH27           "Forest Hills"              1743.
    10 CB10           "Cranberry\nTownship"       1765.
    # ℹ 19 more rows
…
